{"playlists":{"href":"https://api.spotify.com/v1/search?query=Xuxa&type=playlist&offset=0&limit=20","items":[{"collaborative":false,"external_urls":{"spotify":"https://open.spotify.com/playlist/37i9dQZF1DWTDuUF7cSpPA"},"href":"https://api.spotify.com/v1/playlists/37i9dQZF1DWTDuUF7cSpPA","id":"37i9dQZF1DWTDuUF7cSpPA","images":[{"height":300,"url":"https://i.scdn.co/image/23e195c447199d3492fee3c1f2fb3276a8d33444","width":300}],"name":"This Is Xuxa","owner":{"display_name":"Spotify","external_urls":{"spotify":"https://open.spotify.com/user/spotify"},"href":"https://api.spotify.com/v1/users/spotify","id":"spotify","type":"user","uri":"spotify:user:spotify"},"primary_color":null,"public":null,"snapshot_id":"MTUyNDQ5MDEwMywwMDAwMDAwNzAwMDAwMTYxZDI5MzY1ZDUwMDAwMDE2MmYyYjBlOGQ4","tracks":{"href":"https://api.spotify.com/v1/playlists/37i9dQZF1DWTDuUF7cSpPA/tracks","total":44},"type":"playlist","uri":"spotify:user:spotify:playlist:37i9dQZF1DWTDuUF7cSpPA"},{"collaborative":false,"external_urls":{"spotify":"https://open.spotify.com/playlist/5nTKTEAtIjjmSV92gA82Jy"},"href":"https://api.spotify.com/v1/playlists/5nTKTEAtIjjmSV92gA82Jy","id":"5nTKTEAtIjjmSV92gA82Jy","images":[{"height":640,"url":"https://mosaic.scdn.co/640/22b904ffdaa8f110069613b7853c86961f9576b73454f34c26067e2f7b4dd637321d8f285836259fa665ed72981fd3ea3262ff6a2fe9e0efaabb544bd8b9ff1cd55fc042309f535ee65398b6c357e1b8","width":640},{"height":300,"url":"https://mosaic.scdn.co/300/22b904ffdaa8f110069613b7853c86961f9576b73454f34c26067e2f7b4dd637321d8f285836259fa665ed72981fd3ea3262ff6a2fe9e0efaabb544bd8b9ff1cd55fc042309f535ee65398b6c357e1b8","width":300},{"height":60,"url":"https://mosaic.scdn.co/60/22b904ffdaa8f110069613b7853c86961f9576b73454f34c26067e2f7b4dd637321d8f285836259fa665ed72981fd3ea3262ff6a2fe9e0efaabb544bd8b9ff1cd55fc042309f535ee65398b6c357e1b8","width":60}],"name":"Xuxa – Xuxa Só para Baixinhos","owner":{"display_name":"casaxbrasilia","external_urls":{"spotify":"https://open.spotify.com/user/casaxbrasilia"},"href":"https://api.spotify.com/v1/users/casaxbrasilia","id":"casaxbrasilia","type":"user","uri":"spotify:user:casaxbrasilia"},"primary_color":null,"public":null,"snapshot_id":"OCxiZjQ0NjViZDMyOTgwNDdhODdiODcxNGNmZDdjMjM1OTIxYzM2MGNl","tracks":{"href":"https://api.spotify.com/v1/playlists/5nTKTEAtIjjmSV92gA82Jy/tracks","total":94},"type":"playlist","uri":"spotify:user:casaxbrasilia:playlist:5nTKTEAtIjjmSV92gA82Jy"},{"collaborative":false,"external_urls":{"spotify":"https://open.spotify.com/playlist/4WbdyOCWPEh2hwbdnKE9oG"},"href":"https://api.spotify.com/v1/playlists/4WbdyOCWPEh2hwbdnKE9oG","id":"4WbdyOCWPEh2hwbdnKE9oG","images":[{"height":640,"url":"https://i.scdn.co/image/012446987da53b35892e399164520ffb19623ca8","width":640}],"name":"Xuxa — español","owner":{"display_name":"Kleber Moreno","external_urls":{"spotify":"https://open.spotify.com/user/22xntl77qnyeftivoj45yd4dy"},"href":"https://api.spotify.com/v1/users/22xntl77qnyeftivoj45yd4dy","id":"22xntl77qnyeftivoj45yd4dy","type":"user","uri":"spotify:user:22xntl77qnyeftivoj45yd4dy"},"primary_color":null,"public":null,"snapshot_id":"MTQsMWNmMDUyODEwM2EwM2ZlZmM0Y2UwNGJmMWIwMGE0ZjZlMWQzOGU5ZQ==","tracks":{"href":"https://api.spotify.com/v1/playlists/4WbdyOCWPEh2hwbdnKE9oG/tracks","total":12},"type":"playlist","uri":"spotify:user:22xntl77qnyeftivoj45yd4dy:playlist:4WbdyOCWPEh2hwbdnKE9oG"},{"collaborative":false,"external_urls":{"spotify":"https://open.spotify.com/playlist/2IFM9Y8h7ctNlLTjCWeKFN"},"href":"https://api.spotify.com/v1/playlists/2IFM9Y8h7ctNlLTjCWeKFN","id":"2IFM9Y8h7ctNlLTjCWeKFN","images":[{"height":640,"url":"https://mosaic.scdn.co/640/38feb7a52442a07d4187ab4bf66d4b17fb83e88f42cef989e4c71c54317fd12a71aadf2209cb70e282916fa66c02bfec3a4e477a5b420520355127b7cb20c9cd32657a6bffd4f30ac2c25a1046b4131e","width":640},{"height":300,"url":"https://mosaic.scdn.co/300/38feb7a52442a07d4187ab4bf66d4b17fb83e88f42cef989e4c71c54317fd12a71aadf2209cb70e282916fa66c02bfec3a4e477a5b420520355127b7cb20c9cd32657a6bffd4f30ac2c25a1046b4131e","width":300},{"height":60,"url":"https://mosaic.scdn.co/60/38feb7a52442a07d4187ab4bf66d4b17fb83e88f42cef989e4c71c54317fd12a71aadf2209cb70e282916fa66c02bfec3a4e477a5b420520355127b7cb20c9cd32657a6bffd4f30ac2c25a1046b4131e","width":60}],"name":"Xuxa — Parabéns da Xuxa","owner":{"display_name":"larampa-br","external_urls":{"spotify":"https://open.spotify.com/user/larampa-br"},"href":"https://api.spotify.com/v1/users/larampa-br","id":"larampa-br","type":"user","uri":"spotify:user:larampa-br"},"primary_color":null,"public":null,"snapshot_id":"MTgsOTU1ZmZiYjFhMzJmM2QzN2ZlYzk1Y2I4YzQ0ZDBhZTFkMTYyMjM1MQ==","tracks":{"href":"https://api.spotify.com/v1/playlists/2IFM9Y8h7ctNlLTjCWeKFN/tracks","total":30},"type":"playlist","uri":"spotify:user:larampa-br:playlist:2IFM9Y8h7ctNlLTjCWeKFN"},{"collaborative":false,"external_urls":{"spotify":"https://open.spotify.com/playlist/5qHcKZ2sOifqlt6eyGlbJU"},"href":"https://api.spotify.com/v1/playlists/5qHcKZ2sOifqlt6eyGlbJU","id":"5qHcKZ2sOifqlt6eyGlbJU","images":[{"height":640,"url":"https://mosaic.scdn.co/640/073a8486b706667990b423c0d92958cf768531d07d256c20ed3781be387bda51f9a0e2ec181883ee8ed8309b57bda1ff20c7dbec32e2bf143a4076cecfb7d07b587487ff0f6471a439ebe6ce9463ceb2","width":640},{"height":300,"url":"https://mosaic.scdn.co/300/073a8486b706667990b423c0d92958cf768531d07d256c20ed3781be387bda51f9a0e2ec181883ee8ed8309b57bda1ff20c7dbec32e2bf143a4076cecfb7d07b587487ff0f6471a439ebe6ce9463ceb2","width":300},{"height":60,"url":"https://mosaic.scdn.co/60/073a8486b706667990b423c0d92958cf768531d07d256c20ed3781be387bda51f9a0e2ec181883ee8ed8309b57bda1ff20c7dbec32e2bf143a4076cecfb7d07b587487ff0f6471a439ebe6ce9463ceb2","width":60}],"name":"Xuxa - XSPB","owner":{"display_name":"Andreia Caproni","external_urls":{"spotify":"https://open.spotify.com/user/1257542352"},"href":"https://api.spotify.com/v1/users/1257542352","id":"1257542352","type":"user","uri":"spotify:user:1257542352"},"primary_color":null,"public":null,"snapshot_id":"MzcsNDVhMGYyZmVmYjMxZTQ3YmVjZDBlZGQ0NDNlYzBmNzY1MjliYzIxZQ==","tracks":{"href":"https://api.spotify.com/v1/playlists/5qHcKZ2sOifqlt6eyGlbJU/tracks","total":75},"type":"playlist","uri":"spotify:user:1257542352:playlist:5qHcKZ2sOifqlt6eyGlbJU"},{"collaborative":false,"external_urls":{"spotify":"https://open.spotify.com/playlist/7MBk8feLDaMRCVB48mq0GC"},"href":"https://api.spotify.com/v1/playlists/7MBk8feLDaMRCVB48mq0GC","id":"7MBk8feLDaMRCVB48mq0GC","images":[{"height":640,"url":"https://mosaic.scdn.co/640/38feb7a52442a07d4187ab4bf66d4b17fb83e88f65a3a8a185aa76baed86c5f8277d77be47553a8468a80dfb2d26a15ead5f658abf2eb58db9e27f8e97efebf154c3ef6d8476c3a9b52ab669cf1da5f8","width":640},{"height":300,"url":"https://mosaic.scdn.co/300/38feb7a52442a07d4187ab4bf66d4b17fb83e88f65a3a8a185aa76baed86c5f8277d77be47553a8468a80dfb2d26a15ead5f658abf2eb58db9e27f8e97efebf154c3ef6d8476c3a9b52ab669cf1da5f8","width":300},{"height":60,"url":"https://mosaic.scdn.co/60/38feb7a52442a07d4187ab4bf66d4b17fb83e88f65a3a8a185aa76baed86c5f8277d77be47553a8468a80dfb2d26a15ead5f658abf2eb58db9e27f8e97efebf154c3ef6d8476c3a9b52ab669cf1da5f8","width":60}],"name":"Xou da Xuxa (1986 - 1992)","owner":{"display_name":"Douglas Bezerra","external_urls":{"spotify":"https://open.spotify.com/user/12162587132"},"href":"https://api.spotify.com/v1/users/12162587132","id":"12162587132","type":"user","uri":"spotify:user:12162587132"},"primary_color":null,"public":null,"snapshot_id":"MzIsOTAzZWI4NDkxNTM4NDA0MjA3YTBlZmI5ZWM3NzY4YWMyOTljYTJlYg==","tracks":{"href":"https://api.spotify.com/v1/playlists/7MBk8feLDaMRCVB48mq0GC/tracks","total":89},"type":"playlist","uri":"spotify:user:12162587132:playlist:7MBk8feLDaMRCVB48mq0GC"},{"collaborative":false,"external_urls":{"spotify":"https://open.spotify.com/playlist/66PVW5KeNjMcI9p1eGFbmY"},"href":"https://api.spotify.com/v1/playlists/66PVW5KeNjMcI9p1eGFbmY","id":"66PVW5KeNjMcI9p1eGFbmY","images":[{"height":640,"url":"https://mosaic.scdn.co/640/22b904ffdaa8f110069613b7853c86961f9576b738feb7a52442a07d4187ab4bf66d4b17fb83e88f6918cc2ff2f9b4d85e3b4d3f20fce96f1e96b716ccf82ce060295246bf6d1e572b0e3f011917e82e","width":640},{"height":300,"url":"https://mosaic.scdn.co/300/22b904ffdaa8f110069613b7853c86961f9576b738feb7a52442a07d4187ab4bf66d4b17fb83e88f6918cc2ff2f9b4d85e3b4d3f20fce96f1e96b716ccf82ce060295246bf6d1e572b0e3f011917e82e","width":300},{"height":60,"url":"https://mosaic.scdn.co/60/22b904ffdaa8f110069613b7853c86961f9576b738feb7a52442a07d4187ab4bf66d4b17fb83e88f6918cc2ff2f9b4d85e3b4d3f20fce96f1e96b716ccf82ce060295246bf6d1e572b0e3f011917e82e","width":60}],"name":"aniversario da xuxa","owner":{"display_name":"tatjdlugosz","external_urls":{"spotify":"https://open.spotify.com/user/tatjdlugosz"},"href":"https://api.spotify.com/v1/users/tatjdlugosz","id":"tatjdlugosz","type":"user","uri":"spotify:user:tatjdlugosz"},"primary_color":null,"public":null,"snapshot_id":"MjQsZmJiZTBkZmIyZmNmNGMwZWViNmU0NTNhMTIzY2NiZWU0NDA1MjE1Nw==","tracks":{"href":"https://api.spotify.com/v1/playlists/66PVW5KeNjMcI9p1eGFbmY/tracks","total":22},"type":"playlist","uri":"spotify:user:tatjdlugosz:playlist:66PVW5KeNjMcI9p1eGFbmY"},{"collaborative":false,"external_urls":{"spotify":"https://open.spotify.com/playlist/2hjS7tCUbVR1UBf7KuO01O"},"href":"https://api.spotify.com/v1/playlists/2hjS7tCUbVR1UBf7KuO01O","id":"2hjS7tCUbVR1UBf7KuO01O","images":[{"height":640,"url":"https://mosaic.scdn.co/640/38feb7a52442a07d4187ab4bf66d4b17fb83e88f65a3a8a185aa76baed86c5f8277d77be47553a8468a80dfb2d26a15ead5f658abf2eb58db9e27f8e97efebf154c3ef6d8476c3a9b52ab669cf1da5f8","width":640},{"height":300,"url":"https://mosaic.scdn.co/300/38feb7a52442a07d4187ab4bf66d4b17fb83e88f65a3a8a185aa76baed86c5f8277d77be47553a8468a80dfb2d26a15ead5f658abf2eb58db9e27f8e97efebf154c3ef6d8476c3a9b52ab669cf1da5f8","width":300},{"height":60,"url":"https://mosaic.scdn.co/60/38feb7a52442a07d4187ab4bf66d4b17fb83e88f65a3a8a185aa76baed86c5f8277d77be47553a8468a80dfb2d26a15ead5f658abf2eb58db9e27f8e97efebf154c3ef6d8476c3a9b52ab669cf1da5f8","width":60}],"name":"Xuxa ","owner":{"display_name":"Joao Pedro","external_urls":{"spotify":"https://open.spotify.com/user/12181063857"},"href":"https://api.spotify.com/v1/users/12181063857","id":"12181063857","type":"user","uri":"spotify:user:12181063857"},"primary_color":null,"public":null,"snapshot_id":"MTUsMmZiYjQwMmQ2NGQ2ODRjNjA0YWExOGZmMjMzOTZjNDc1NWNlNDU2MA==","tracks":{"href":"https://api.spotify.com/v1/playlists/2hjS7tCUbVR1UBf7KuO01O/tracks","total":177},"type":"playlist","uri":"spotify:user:12181063857:playlist:2hjS7tCUbVR1UBf7KuO01O"},{"collaborative":false,"external_urls":{"spotify":"https://open.spotify.com/playlist/3SWclvKLe2ecuokyxAqALo"},"href":"https://api.spotify.com/v1/playlists/3SWclvKLe2ecuokyxAqALo","id":"3SWclvKLe2ecuokyxAqALo","images":[{"height":640,"url":"https://mosaic.scdn.co/640/22b904ffdaa8f110069613b7853c86961f9576b73454f34c26067e2f7b4dd637321d8f285836259f424f1be49433643657777c458375f3414fe36a71a665ed72981fd3ea3262ff6a2fe9e0efaabb544b","width":640},{"height":300,"url":"https://mosaic.scdn.co/300/22b904ffdaa8f110069613b7853c86961f9576b73454f34c26067e2f7b4dd637321d8f285836259f424f1be49433643657777c458375f3414fe36a71a665ed72981fd3ea3262ff6a2fe9e0efaabb544b","width":300},{"height":60,"url":"https://mosaic.scdn.co/60/22b904ffdaa8f110069613b7853c86961f9576b73454f34c26067e2f7b4dd637321d8f285836259f424f1be49433643657777c458375f3414fe36a71a665ed72981fd3ea3262ff6a2fe9e0efaabb544b","width":60}],"name":"XUXA SPB VARIADO","owner":{"display_name":"edila.ef","external_urls":{"spotify":"https://open.spotify.com/user/edila.ef"},"href":"https://api.spotify.com/v1/users/edila.ef","id":"edila.ef","type":"user","uri":"spotify:user:edila.ef"},"primary_color":null,"public":null,"snapshot_id":"OTUsNTRkNDcyY2NiMTBmY2JmYzlmOGEzM2ZkODVkZWY2N2Y3ODkzMDE2YQ==","tracks":{"href":"https://api.spotify.com/v1/playlists/3SWclvKLe2ecuokyxAqALo/tracks","total":90},"type":"playlist","uri":"spotify:user:edila.ef:playlist:3SWclvKLe2ecuokyxAqALo"},{"collaborative":false,"external_urls":{"spotify":"https://open.spotify.com/playlist/6AIukTymsMsePklradoAm8"},"href":"https://api.spotify.com/v1/playlists/6AIukTymsMsePklradoAm8","id":"6AIukTymsMsePklradoAm8","images":[{"height":640,"url":"https://i.scdn.co/image/22b904ffdaa8f110069613b7853c86961f9576b7","width":640}],"name":"Xuxa estatua","owner":{"display_name":"Aluana_costa","external_urls":{"spotify":"https://open.spotify.com/user/yc21ev3kkil0o3x3icweb2si3"},"href":"https://api.spotify.com/v1/users/yc21ev3kkil0o3x3icweb2si3","id":"yc21ev3kkil0o3x3icweb2si3","type":"user","uri":"spotify:user:yc21ev3kkil0o3x3icweb2si3"},"primary_color":null,"public":null,"snapshot_id":"NCw2NGFkMzhjNWVmYjEzY2FlYmQwZTMxZjkxZGJhYTk0MGIyMDgxMGQ4","tracks":{"href":"https://api.spotify.com/v1/playlists/6AIukTymsMsePklradoAm8/tracks","total":2},"type":"playlist","uri":"spotify:user:yc21ev3kkil0o3x3icweb2si3:playlist:6AIukTymsMsePklradoAm8"},{"collaborative":false,"external_urls":{"spotify":"https://open.spotify.com/playlist/5Soqb5k88GGiD1Na88E0eK"},"href":"https://api.spotify.com/v1/playlists/5Soqb5k88GGiD1Na88E0eK","id":"5Soqb5k88GGiD1Na88E0eK","images":[{"height":640,"url":"https://i.scdn.co/image/012446987da53b35892e399164520ffb19623ca8","width":640}],"name":"Xuxa – en español","owner":{"display_name":"Franco Hero","external_urls":{"spotify":"https://open.spotify.com/user/lostipitos"},"href":"https://api.spotify.com/v1/users/lostipitos","id":"lostipitos","type":"user","uri":"spotify:user:lostipitos"},"primary_color":null,"public":null,"snapshot_id":"NSxkYzM3MmQxMGM5OGVkOGM3Yjk3MjUyMjNjZTJhZWQzMzliYjE3MjFj","tracks":{"href":"https://api.spotify.com/v1/playlists/5Soqb5k88GGiD1Na88E0eK/tracks","total":12},"type":"playlist","uri":"spotify:user:lostipitos:playlist:5Soqb5k88GGiD1Na88E0eK"},{"collaborative":false,"external_urls":{"spotify":"https://open.spotify.com/playlist/2c456z6ak9hi5tbOkEQLPi"},"href":"https://api.spotify.com/v1/playlists/2c456z6ak9hi5tbOkEQLPi","id":"2c456z6ak9hi5tbOkEQLPi","images":[{"height":640,"url":"https://mosaic.scdn.co/640/06e3c666b0f2d86f54b42a07626961d670f354761f59c7742ef25cdb212bd5e37cb21be2aa328d8538feb7a52442a07d4187ab4bf66d4b17fb83e88f7ff481625a64bb295b34e8136e1ade28b8e712c8","width":640},{"height":300,"url":"https://mosaic.scdn.co/300/06e3c666b0f2d86f54b42a07626961d670f354761f59c7742ef25cdb212bd5e37cb21be2aa328d8538feb7a52442a07d4187ab4bf66d4b17fb83e88f7ff481625a64bb295b34e8136e1ade28b8e712c8","width":300},{"height":60,"url":"https://mosaic.scdn.co/60/06e3c666b0f2d86f54b42a07626961d670f354761f59c7742ef25cdb212bd5e37cb21be2aa328d8538feb7a52442a07d4187ab4bf66d4b17fb83e88f7ff481625a64bb295b34e8136e1ade28b8e712c8","width":60}],"name":"parabens da xuxa ","owner":{"display_name":"Matheus Toledo","external_urls":{"spotify":"https://open.spotify.com/user/224ui26cfzknybddhjgdotlby"},"href":"https://api.spotify.com/v1/users/224ui26cfzknybddhjgdotlby","id":"224ui26cfzknybddhjgdotlby","type":"user","uri":"spotify:user:224ui26cfzknybddhjgdotlby"},"primary_color":null,"public":null,"snapshot_id":"MTYsYjBiMGIzM2FhYWQ5ZTM1MDhkZjQ0YTA0Y2FiOGQzMTczZjM1NWQxNQ==","tracks":{"href":"https://api.spotify.com/v1/playlists/2c456z6ak9hi5tbOkEQLPi/tracks","total":14},"type":"playlist","uri":"spotify:user:224ui26cfzknybddhjgdotlby:playlist:2c456z6ak9hi5tbOkEQLPi"},{"collaborative":false,"external_urls":{"spotify":"https://open.spotify.com/playlist/0iLHmG6cvdgkD4bVOTDBib"},"href":"https://api.spotify.com/v1/playlists/0iLHmG6cvdgkD4bVOTDBib","id":"0iLHmG6cvdgkD4bVOTDBib","images":[{"height":640,"url":"https://mosaic.scdn.co/640/06e3c666b0f2d86f54b42a07626961d670f3547628fdbc055c0388e030cd0b7a9495ededfdc12a0b64bf8d89d2a171c57ad571791f1d91973c41b102d72419e503df0a7fc1c2ebf3076e4363cbfc1fac","width":640},{"height":300,"url":"https://mosaic.scdn.co/300/06e3c666b0f2d86f54b42a07626961d670f3547628fdbc055c0388e030cd0b7a9495ededfdc12a0b64bf8d89d2a171c57ad571791f1d91973c41b102d72419e503df0a7fc1c2ebf3076e4363cbfc1fac","width":300},{"height":60,"url":"https://mosaic.scdn.co/60/06e3c666b0f2d86f54b42a07626961d670f3547628fdbc055c0388e030cd0b7a9495ededfdc12a0b64bf8d89d2a171c57ad571791f1d91973c41b102d72419e503df0a7fc1c2ebf3076e4363cbfc1fac","width":60}],"name":"Aniversário de criança","owner":{"display_name":"Wallace Soares","external_urls":{"spotify":"https://open.spotify.com/user/12157108326"},"href":"https://api.spotify.com/v1/users/12157108326","id":"12157108326","type":"user","uri":"spotify:user:12157108326"},"primary_color":null,"public":null,"snapshot_id":"MjQ1LGYyNzY3MDk0ZTI5NGMzZjliNTdlNWYwYWZhYmFiYjMwOWY2ZGMzZmY=","tracks":{"href":"https://api.spotify.com/v1/playlists/0iLHmG6cvdgkD4bVOTDBib/tracks","total":164},"type":"playlist","uri":"spotify:user:12157108326:playlist:0iLHmG6cvdgkD4bVOTDBib"},{"collaborative":false,"external_urls":{"spotify":"https://open.spotify.com/playlist/4aIHdN0nFPha2B4q3AnfQv"},"href":"https://api.spotify.com/v1/playlists/4aIHdN0nFPha2B4q3AnfQv","id":"4aIHdN0nFPha2B4q3AnfQv","images":[{"height":640,"url":"https://mosaic.scdn.co/640/38feb7a52442a07d4187ab4bf66d4b17fb83e88f3e8806dc455c9b5553ba9152492b46f1057e3cb5aa7956386f62dd34036548f6826bb8bfe9a4b57dc2190d614f0c2814ead129429d7ea8f4650b47ef","width":640},{"height":300,"url":"https://mosaic.scdn.co/300/38feb7a52442a07d4187ab4bf66d4b17fb83e88f3e8806dc455c9b5553ba9152492b46f1057e3cb5aa7956386f62dd34036548f6826bb8bfe9a4b57dc2190d614f0c2814ead129429d7ea8f4650b47ef","width":300},{"height":60,"url":"https://mosaic.scdn.co/60/38feb7a52442a07d4187ab4bf66d4b17fb83e88f3e8806dc455c9b5553ba9152492b46f1057e3cb5aa7956386f62dd34036548f6826bb8bfe9a4b57dc2190d614f0c2814ead129429d7ea8f4650b47ef","width":60}],"name":"Planeta Xuxa","owner":{"display_name":"Vanessa Santana","external_urls":{"spotify":"https://open.spotify.com/user/12148096729"},"href":"https://api.spotify.com/v1/users/12148096729","id":"12148096729","type":"user","uri":"spotify:user:12148096729"},"primary_color":null,"public":null,"snapshot_id":"MTgsY2I4MjgwNzQwNDM2YjQzOTI1NDZmZTQ5Y2I0OTRhODJmNTk2MWYzOA==","tracks":{"href":"https://api.spotify.com/v1/playlists/4aIHdN0nFPha2B4q3AnfQv/tracks","total":16},"type":"playlist","uri":"spotify:user:12148096729:playlist:4aIHdN0nFPha2B4q3AnfQv"},{"collaborative":false,"external_urls":{"spotify":"https://open.spotify.com/playlist/2OeoRJ9evvnj7UPsg0SIlA"},"href":"https://api.spotify.com/v1/playlists/2OeoRJ9evvnj7UPsg0SIlA","id":"2OeoRJ9evvnj7UPsg0SIlA","images":[{"height":640,"url":"https://mosaic.scdn.co/640/38feb7a52442a07d4187ab4bf66d4b17fb83e88f68a80dfb2d26a15ead5f658abf2eb58db9e27f8e97efebf154c3ef6d8476c3a9b52ab669cf1da5f8c89837745d8439f0856821d4213ba5296cd2e23b","width":640},{"height":300,"url":"https://mosaic.scdn.co/300/38feb7a52442a07d4187ab4bf66d4b17fb83e88f68a80dfb2d26a15ead5f658abf2eb58db9e27f8e97efebf154c3ef6d8476c3a9b52ab669cf1da5f8c89837745d8439f0856821d4213ba5296cd2e23b","width":300},{"height":60,"url":"https://mosaic.scdn.co/60/38feb7a52442a07d4187ab4bf66d4b17fb83e88f68a80dfb2d26a15ead5f658abf2eb58db9e27f8e97efebf154c3ef6d8476c3a9b52ab669cf1da5f8c89837745d8439f0856821d4213ba5296cd2e23b","width":60}],"name":"musicas da xuxa","owner":{"display_name":"carla.sv-br","external_urls":{"spotify":"https://open.spotify.com/user/carla.sv-br"},"href":"https://api.spotify.com/v1/users/carla.sv-br","id":"carla.sv-br","type":"user","uri":"spotify:user:carla.sv-br"},"primary_color":null,"public":null,"snapshot_id":"MjMsZTdmZGM4OTIzZWY1Nzk3Zjc4OWM3MDg2NTUxN2NjOWNjZjE0ZWMxOQ==","tracks":{"href":"https://api.spotify.com/v1/playlists/2OeoRJ9evvnj7UPsg0SIlA/tracks","total":16},"type":"playlist","uri":"spotify:user:carla.sv-br:playlist:2OeoRJ9evvnj7UPsg0SIlA"},{"collaborative":false,"external_urls":{"spotify":"https://open.spotify.com/playlist/4i9m9y8h8zcfqYhVFPMcL4"},"href":"https://api.spotify.com/v1/playlists/4i9m9y8h8zcfqYhVFPMcL4","id":"4i9m9y8h8zcfqYhVFPMcL4","images":[{"height":640,"url":"https://mosaic.scdn.co/640/38feb7a52442a07d4187ab4bf66d4b17fb83e88f65a3a8a185aa76baed86c5f8277d77be47553a8468a80dfb2d26a15ead5f658abf2eb58db9e27f8e97efebf154c3ef6d8476c3a9b52ab669cf1da5f8","width":640},{"height":300,"url":"https://mosaic.scdn.co/300/38feb7a52442a07d4187ab4bf66d4b17fb83e88f65a3a8a185aa76baed86c5f8277d77be47553a8468a80dfb2d26a15ead5f658abf2eb58db9e27f8e97efebf154c3ef6d8476c3a9b52ab669cf1da5f8","width":300},{"height":60,"url":"https://mosaic.scdn.co/60/38feb7a52442a07d4187ab4bf66d4b17fb83e88f65a3a8a185aa76baed86c5f8277d77be47553a8468a80dfb2d26a15ead5f658abf2eb58db9e27f8e97efebf154c3ef6d8476c3a9b52ab669cf1da5f8","width":60}],"name":"SHOW DA XUXA - Minha infância","owner":{"display_name":"fazmalu","external_urls":{"spotify":"https://open.spotify.com/user/fazmalu"},"href":"https://api.spotify.com/v1/users/fazmalu","id":"fazmalu","type":"user","uri":"spotify:user:fazmalu"},"primary_color":null,"public":null,"snapshot_id":"MzEsMzQ4M2ExYTc5OThkODNjMjJjNDEzMDQyYjdjYjg4NTQwNjllNDhhNw==","tracks":{"href":"https://api.spotify.com/v1/playlists/4i9m9y8h8zcfqYhVFPMcL4/tracks","total":29},"type":"playlist","uri":"spotify:user:fazmalu:playlist:4i9m9y8h8zcfqYhVFPMcL4"},{"collaborative":false,"external_urls":{"spotify":"https://open.spotify.com/playlist/4Q3lzZNVfDmJXaASeDMYt6"},"href":"https://api.spotify.com/v1/playlists/4Q3lzZNVfDmJXaASeDMYt6","id":"4Q3lzZNVfDmJXaASeDMYt6","images":[{"height":640,"url":"https://mosaic.scdn.co/640/42cef989e4c71c54317fd12a71aadf2209cb70e26400595b8f5599c247aaa386066837f2d2b48bcb674175c9e87e6bf07cecac5a6423d8d788041103dd6b24c66abc415cda4530c0dae9b60c71c85617","width":640},{"height":300,"url":"https://mosaic.scdn.co/300/42cef989e4c71c54317fd12a71aadf2209cb70e26400595b8f5599c247aaa386066837f2d2b48bcb674175c9e87e6bf07cecac5a6423d8d788041103dd6b24c66abc415cda4530c0dae9b60c71c85617","width":300},{"height":60,"url":"https://mosaic.scdn.co/60/42cef989e4c71c54317fd12a71aadf2209cb70e26400595b8f5599c247aaa386066837f2d2b48bcb674175c9e87e6bf07cecac5a6423d8d788041103dd6b24c66abc415cda4530c0dae9b60c71c85617","width":60}],"name":"Xuxa — Ilariê","owner":{"display_name":"orurbinam","external_urls":{"spotify":"https://open.spotify.com/user/orurbinam"},"href":"https://api.spotify.com/v1/users/orurbinam","id":"orurbinam","type":"user","uri":"spotify:user:orurbinam"},"primary_color":null,"public":null,"snapshot_id":"OTksYzI4MWRhZTM2YmRkOWYwOWQ3NjM5ODc5ODRhZTkyMDkxMDQ1OTcyOQ==","tracks":{"href":"https://api.spotify.com/v1/playlists/4Q3lzZNVfDmJXaASeDMYt6/tracks","total":95},"type":"playlist","uri":"spotify:user:orurbinam:playlist:4Q3lzZNVfDmJXaASeDMYt6"},{"collaborative":false,"external_urls":{"spotify":"https://open.spotify.com/playlist/5jMgYeA2sIiRGlNcLwn0Ws"},"href":"https://api.spotify.com/v1/playlists/5jMgYeA2sIiRGlNcLwn0Ws","id":"5jMgYeA2sIiRGlNcLwn0Ws","images":[{"height":640,"url":"https://i.scdn.co/image/176b0a653cc379a69ef5bdd42ae209c60e503c10","width":640}],"name":"Alfabeto da Xuxa","owner":{"display_name":"Pedro Leonardo Bertoni","external_urls":{"spotify":"https://open.spotify.com/user/22cl5fzgyovzp4wpdzh7dnlwq"},"href":"https://api.spotify.com/v1/users/22cl5fzgyovzp4wpdzh7dnlwq","id":"22cl5fzgyovzp4wpdzh7dnlwq","type":"user","uri":"spotify:user:22cl5fzgyovzp4wpdzh7dnlwq"},"primary_color":null,"public":null,"snapshot_id":"MjksMjUzZWRhNjkwMzdiN2U1MzI5MjYzYjc3YmU0OWY5OGI5ZTVmZThkNg==","tracks":{"href":"https://api.spotify.com/v1/playlists/5jMgYeA2sIiRGlNcLwn0Ws/tracks","total":27},"type":"playlist","uri":"spotify:user:22cl5fzgyovzp4wpdzh7dnlwq:playlist:5jMgYeA2sIiRGlNcLwn0Ws"},{"collaborative":false,"external_urls":{"spotify":"https://open.spotify.com/playlist/4eczotEoMuwRGgU3hVWD5p"},"href":"https://api.spotify.com/v1/playlists/4eczotEoMuwRGgU3hVWD5p","id":"4eczotEoMuwRGgU3hVWD5p","images":[{"height":640,"url":"https://i.scdn.co/image/a665ed72981fd3ea3262ff6a2fe9e0efaabb544b","width":640}],"name":"Xuxa — Xuxa Só para Baixinhos, Vol. 13 - Abc do Xspb","owner":{"display_name":"Gabriel Costa","external_urls":{"spotify":"https://open.spotify.com/user/22elopo7tr4ma5tcqf3ozbndy"},"href":"https://api.spotify.com/v1/users/22elopo7tr4ma5tcqf3ozbndy","id":"22elopo7tr4ma5tcqf3ozbndy","type":"user","uri":"spotify:user:22elopo7tr4ma5tcqf3ozbndy"},"primary_color":null,"public":null,"snapshot_id":"MTAyLDBjODM2YTc4ZDMwOWEzODlkZGUyODhmMGEyMjg5MWZlMWU1MjllYTA=","tracks":{"href":"https://api.spotify.com/v1/playlists/4eczotEoMuwRGgU3hVWD5p/tracks","total":157},"type":"playlist","uri":"spotify:user:22elopo7tr4ma5tcqf3ozbndy:playlist:4eczotEoMuwRGgU3hVWD5p"},{"collaborative":false,"external_urls":{"spotify":"https://open.spotify.com/playlist/74vdw0pW7YbDEWAm3y3RHW"},"href":"https://api.spotify.com/v1/playlists/74vdw0pW7YbDEWAm3y3RHW","id":"74vdw0pW7YbDEWAm3y3RHW","images":[{"height":640,"url":"https://mosaic.scdn.co/640/38feb7a52442a07d4187ab4bf66d4b17fb83e88f65a3a8a185aa76baed86c5f8277d77be47553a8497efebf154c3ef6d8476c3a9b52ab669cf1da5f8c2190d614f0c2814ead129429d7ea8f4650b47ef","width":640},{"height":300,"url":"https://mosaic.scdn.co/300/38feb7a52442a07d4187ab4bf66d4b17fb83e88f65a3a8a185aa76baed86c5f8277d77be47553a8497efebf154c3ef6d8476c3a9b52ab669cf1da5f8c2190d614f0c2814ead129429d7ea8f4650b47ef","width":300},{"height":60,"url":"https://mosaic.scdn.co/60/38feb7a52442a07d4187ab4bf66d4b17fb83e88f65a3a8a185aa76baed86c5f8277d77be47553a8497efebf154c3ef6d8476c3a9b52ab669cf1da5f8c2190d614f0c2814ead129429d7ea8f4650b47ef","width":60}],"name":"Turma da Xuxa","owner":{"display_name":"André Viccino","external_urls":{"spotify":"https://open.spotify.com/user/ritaccf-br"},"href":"https://api.spotify.com/v1/users/ritaccf-br","id":"ritaccf-br","type":"user","uri":"spotify:user:ritaccf-br"},"primary_color":null,"public":null,"snapshot_id":"MTIsNWMxMGRhMDczNWNlYWQ1ODUxNTJiNWI4OGM0ZmFlYjY1N2NhMjk0Mg==","tracks":{"href":"https://api.spotify.com/v1/playlists/74vdw0pW7YbDEWAm3y3RHW/tracks","total":10},"type":"playlist","uri":"spotify:user:ritaccf-br:playlist:74vdw0pW7YbDEWAm3y3RHW"}],"limit":20,"next":"https://api.spotify.com/v1/search?query=Xuxa&type=playlist&offset=20&limit=20","offset":0,"previous":null,"total":660}}